module bitbucket.org/atlassian/sink

require (
	4d63.com/gochecknoglobals v0.0.0-20180908201037-5090db600a84 // indirect
	4d63.com/gochecknoinits v0.0.0-20180528051558-14d5915061e5 // indirect
	github.com/DataDog/datadog-go v0.0.0-20170427165718-0ddda6bee211
	github.com/alecthomas/gocyclo v0.0.0-20150208221726-aa8f8b160214 // indirect
	github.com/alexflint/go-arg v0.0.0-20180516182405-f7c0423bd11e // indirect
	github.com/alexflint/go-scalar v0.0.0-20170216020425-e80c3b7ed292 // indirect
	github.com/alexkohler/nakedret v0.0.0-20171106223215-c0e305a4f690 // indirect
	github.com/client9/misspell v0.3.4 // indirect
	github.com/golang/lint v0.0.0-20180702182130-06c8688daad7 // indirect
	github.com/gordonklaus/ineffassign v0.0.0-20180909121442-1003c8bd00dc // indirect
	github.com/jgautheron/goconst v0.0.0-20170703170152-9740945f5dcb // indirect
	github.com/kisielk/errcheck v1.1.0 // indirect
	github.com/mdempsky/maligned v0.0.0-20180708014732-6e39bd26a8c8 // indirect
	github.com/mdempsky/unconvert v0.0.0-20180703203632-1a9a0a0a3594 // indirect
	github.com/mibk/dupl v1.0.0 // indirect
	github.com/opennota/check v0.0.0-20180911053232-0c771f5545ff // indirect
	github.com/rs/zerolog v1.3.0
	github.com/securego/gosec v0.0.0-20181003063547-f9b41874b1dd // indirect
	github.com/stripe/safesql v0.0.0-20171221195208-cddf355596fe // indirect
	github.com/tsenart/deadcode v0.0.0-20160724212837-210d2dc333e9 // indirect
	github.com/walle/lll v0.0.0-20160702150637-8b13b3fbf731 // indirect
	golang.org/x/lint v0.0.0-20180702182130-06c8688daad7 // indirect
	golang.org/x/tools v0.0.0-20181004021813-1f2a8f46bd66 // indirect
	honnef.co/go/tools v0.0.0-20180920025451-e3ad64cb4ed3 // indirect
	mvdan.cc/interfacer v0.0.0-20180901003855-c20040233aed // indirect
	mvdan.cc/unparam v0.0.0-20180912072546-8f80bf61b2ce // indirect
)
